<?xml version="1.0" standalone="no"?>
<!DOCTYPE svg PUBLIC "-//W3C//DTD SVG 20010904//EN"
 "http://www.w3.org/TR/2001/REC-SVG-20010904/DTD/svg10.dtd">
<svg version="1.0" xmlns="http://www.w3.org/2000/svg"
 width="700.000000pt" height="996.000000pt" viewBox="0 0 700.000000 996.000000"
 preserveAspectRatio="xMidYMid meet">

<g transform="translate(0.000000,996.000000) scale(0.100000,-0.100000)"
fill="#000000" stroke="none">
<path d="M2930 9920 c0 -11 101 -84 289 -210 167 -112 308 -240 355 -322 40
-69 56 -140 56 -249 0 -175 -36 -270 -233 -607 -107 -182 -163 -303 -203 -437
-24 -81 -27 -106 -28 -255 -1 -166 6 -217 50 -385 26 -95 85 -279 96 -295 10
-16 9 -12 -18 135 -22 117 -20 260 6 385 38 188 99 352 268 725 98 215 172
439 192 575 18 120 20 125 60 128 27 2 45 -4 72 -25 72 -56 128 -162 224 -428
l29 -80 3 42 c8 105 -52 332 -127 480 -133 266 -439 542 -801 723 -133 67
-290 121 -290 100z"/>
<path d="M2795 9735 c-105 -58 -267 -110 -407 -131 -89 -13 -149 -15 -283 -10
-93 3 -186 9 -205 12 -35 6 -35 6 -15 -14 28 -27 552 -362 568 -362 6 0 45 34
86 76 75 77 150 133 230 174 63 31 223 70 293 70 33 0 58 4 56 9 -1 4 -38 37
-81 71 -43 34 -95 82 -115 106 -20 24 -39 44 -42 43 -3 0 -41 -20 -85 -44z"/>
<path d="M1773 9398 c25 -145 28 -300 14 -753 -20 -639 -8 -845 64 -1080 42
-136 85 -214 191 -347 182 -227 398 -420 523 -467 50 -19 77 -21 281 -21 129
0 223 4 220 9 -3 5 -38 17 -78 27 -215 52 -451 214 -610 419 -156 201 -293
600 -329 960 -14 143 -7 541 10 574 16 30 34 27 130 -23 111 -57 178 -76 446
-126 274 -51 369 -79 432 -127 26 -20 50 -40 51 -45 2 -4 10 -8 18 -8 11 0 14
19 14 93 0 85 -3 100 -31 156 -37 74 -122 150 -214 192 -84 38 -245 84 -414
119 -177 37 -269 68 -386 128 -110 57 -168 112 -259 250 -37 56 -70 102 -73
102 -3 0 -3 -15 0 -32z"/>
<path d="M2875 9346 c-56 -25 -110 -74 -121 -108 -21 -67 128 -79 248 -20 60
29 128 89 128 112 0 5 -7 16 -16 24 -26 27 -176 22 -239 -8z"/>
<path d="M4955 9332 c-44 -15 -114 -49 -155 -77 -92 -60 -245 -210 -292 -285
-67 -105 -178 -343 -178 -381 0 -20 26 8 75 81 79 117 152 180 208 180 37 0
50 -32 73 -180 45 -290 6 -656 -100 -939 -59 -157 -93 -236 -120 -280 -12 -20
-37 -63 -55 -96 l-32 -60 46 50 c59 63 142 230 194 390 21 66 84 298 139 515
131 514 152 584 217 715 62 125 72 138 138 183 81 56 175 80 380 98 43 4 75
10 70 14 -4 4 -35 13 -68 20 -33 7 -106 28 -162 46 -88 29 -115 34 -200 34
-80 0 -113 -5 -178 -28z"/>
<path d="M3330 9174 c-67 -42 -165 -73 -366 -116 l-153 -32 82 -44 c130 -69
236 -157 329 -272 20 -24 39 -42 41 -40 8 10 90 237 113 315 14 44 27 113 31
153 7 85 4 86 -77 36z"/>
<path d="M990 9031 c0 -5 30 -72 66 -148 131 -275 164 -378 183 -584 14 -149
35 -241 91 -411 80 -240 182 -441 315 -616 116 -154 204 -238 347 -334 74 -49
194 -105 204 -95 8 8 -66 101 -253 315 -226 258 -310 379 -377 538 -68 164
-115 440 -103 605 8 94 46 254 80 331 14 31 44 84 66 117 61 89 61 87 -6 95
-92 10 -188 39 -323 96 -133 56 -255 100 -277 100 -7 0 -13 -4 -13 -9z"/>
<path d="M5206 8386 c-100 -37 -200 -136 -262 -259 -14 -26 -71 -189 -128
-361 -109 -330 -138 -397 -211 -486 -24 -30 -43 -56 -41 -58 7 -6 69 29 123
69 100 75 177 198 288 463 119 286 185 400 279 489 42 39 135 107 148 107 4 0
19 5 35 11 28 11 28 11 6 20 -45 17 -196 20 -237 5z"/>
<path d="M4108 8360 c-225 -82 -414 -296 -504 -567 -64 -193 -92 -475 -74
-729 5 -81 12 -149 14 -152 10 -9 49 88 126 313 89 264 169 440 225 497 66 67
97 61 115 -25 12 -61 -4 -170 -45 -307 -15 -47 -29 -94 -32 -105 -14 -46 34
16 79 102 94 180 138 353 157 628 6 83 16 197 22 253 6 58 7 108 3 112 -5 5
-44 -4 -86 -20z"/>
<path d="M5009 7393 c-82 -77 -175 -141 -284 -196 -104 -52 -392 -168 -480
-192 -77 -22 -91 -35 -38 -35 48 0 73 -25 73 -75 0 -101 -75 -192 -214 -260
-95 -47 -260 -95 -328 -95 -32 0 -46 6 -69 31 -55 59 -48 111 27 197 25 28 41
52 35 52 -6 0 -57 -23 -114 -51 -271 -137 -449 -196 -617 -208 l-105 -7 258
-127 c231 -114 264 -127 311 -127 53 0 146 21 291 66 446 138 851 385 1057
645 118 147 296 439 269 439 -6 0 -38 -26 -72 -57z"/>
<path d="M1300 7136 c-80 -30 -184 -90 -278 -160 -218 -165 -311 -316 -300
-489 6 -91 33 -152 93 -211 85 -85 176 -116 336 -116 167 0 306 22 534 85 338
94 498 125 680 132 156 6 256 -4 415 -43 109 -26 310 -44 310 -28 0 20 -310
182 -475 247 -120 48 -356 112 -485 133 -114 18 -213 21 -500 14 -156 -3 -194
-1 -243 14 -97 30 -147 88 -147 173 0 42 50 154 94 212 40 54 33 62 -34 37z"/>
<path d="M3845 6224 c-157 -99 -245 -124 -436 -124 -128 0 -214 13 -304 46
-11 4 10 -24 46 -62 198 -207 355 -441 515 -768 114 -232 205 -535 258 -856
38 -230 46 -337 46 -604 0 -350 -24 -522 -88 -639 -32 -60 -161 -183 -229
-220 -67 -36 -217 -74 -324 -82 -174 -14 -431 40 -614 129 -189 92 -345 205
-345 250 0 22 19 31 130 66 101 32 112 34 303 38 277 5 373 -10 737 -118 138
-41 170 -47 170 -31 0 13 -95 133 -132 168 -151 135 -342 227 -559 270 -78 15
-144 18 -379 18 -321 0 -402 -10 -700 -86 -262 -66 -776 -246 -758 -265 3 -3
60 -16 125 -29 140 -29 252 -66 413 -139 229 -104 414 -220 775 -488 287 -213
341 -233 605 -226 158 5 170 6 279 42 540 178 674 458 658 1365 -7 384 -24
489 -167 1011 -111 406 -138 572 -127 794 7 144 29 238 87 361 35 75 80 188
80 202 0 10 -30 -1 -65 -23z"/>
<path d="M5065 3510 c-461 -34 -736 -177 -987 -510 -191 -254 -304 -552 -360
-945 -31 -218 -1 -1027 48 -1280 34 -180 135 -424 238 -579 51 -77 116 -150
116 -131 0 5 -22 61 -50 124 -58 136 -140 414 -174 591 -52 267 -61 372 -61
725 0 353 6 418 61 662 48 215 86 323 178 510 85 172 150 224 258 210 89 -12
120 -92 75 -191 -32 -69 -24 -75 60 -51 143 42 290 131 506 309 269 220 462
315 756 370 130 25 240 21 398 -14 82 -19 140 -27 145 -22 13 13 -47 79 -91
101 -99 50 -261 88 -475 111 -135 14 -506 20 -641 10z"/>
</g>
</svg>
